/*
WARNING: Do NOT edit the input and output ports in this file in a text
editor if you plan to continue editing the block that represents it in
the Block Editor! File corruption is VERY likely to occur.
*/
/*
Copyright (C) 1991-2013 Altera Corporation
Your use of Altera Corporation's design tools, logic functions 
and other software and tools, and its AMPP partner logic 
functions, and any output files from any of the foregoing 
(including device programming or simulation files), and any 
associated documentation or information are expressly subject 
to the terms and conditions of the Altera Program License 
Subscription Agreement, Altera MegaCore Function License 
Agreement, or other applicable license agreement, including, 
without limitation, that your use is for the sole purpose of 
programming logic devices manufactured by Altera and sold by 
Altera or its authorized distributors.  Please refer to the 
applicable agreement for further details.
*/
(header "graphic" (version "1.4"))
(pin
	(input)
	(rect 232 -376 408 -360)
	(text "INPUT" (rect 133 0 161 10)(font "Arial" (font_size 6)))
	(text "clk" (rect 9 0 23 12)(font "Arial" ))
	(pt 176 8)
	(drawing
		(line (pt 92 12)(pt 117 12))
		(line (pt 92 4)(pt 117 4))
		(line (pt 121 8)(pt 176 8))
		(line (pt 92 12)(pt 92 4))
		(line (pt 117 4)(pt 121 8))
		(line (pt 117 12)(pt 121 8))
	)
	(text "VCC" (rect 136 7 156 17)(font "Arial" (font_size 6)))
	(annotation_block (location)(rect 136 -400 192 -384))
)
(pin
	(input)
	(rect 232 -360 408 -344)
	(text "INPUT" (rect 133 0 161 10)(font "Arial" (font_size 6)))
	(text "reset" (rect 9 0 33 12)(font "Arial" ))
	(pt 176 8)
	(drawing
		(line (pt 92 12)(pt 117 12))
		(line (pt 92 4)(pt 117 4))
		(line (pt 121 8)(pt 176 8))
		(line (pt 92 12)(pt 92 4))
		(line (pt 117 4)(pt 121 8))
		(line (pt 117 12)(pt 121 8))
	)
	(text "VCC" (rect 136 7 156 17)(font "Arial" (font_size 6)))
	(annotation_block (location)(rect 168 -344 232 -328))
)
(pin
	(output)
	(rect 728 224 904 240)
	(text "OUTPUT" (rect 1 0 39 10)(font "Arial" (font_size 6)))
	(text "OPERAND[15..0]" (rect 90 0 176 12)(font "Arial" ))
	(pt 0 8)
	(drawing
		(line (pt 0 8)(pt 52 8))
		(line (pt 52 4)(pt 78 4))
		(line (pt 52 12)(pt 78 12))
		(line (pt 52 12)(pt 52 4))
		(line (pt 78 4)(pt 82 8))
		(line (pt 82 8)(pt 78 12))
		(line (pt 78 12)(pt 82 8))
	)
)
(pin
	(output)
	(rect 728 208 904 224)
	(text "OUTPUT" (rect 1 0 39 10)(font "Arial" (font_size 6)))
	(text "IRMSB[15..0]" (rect 90 0 156 12)(font "Arial" ))
	(pt 0 8)
	(drawing
		(line (pt 0 8)(pt 52 8))
		(line (pt 52 4)(pt 78 4))
		(line (pt 52 12)(pt 78 12))
		(line (pt 52 12)(pt 52 4))
		(line (pt 78 4)(pt 82 8))
		(line (pt 82 8)(pt 78 12))
		(line (pt 78 12)(pt 82 8))
	)
)
(pin
	(output)
	(rect 920 -360 1096 -344)
	(text "OUTPUT" (rect 1 0 39 10)(font "Arial" (font_size 6)))
	(text "MemRead" (rect 90 0 139 12)(font "Arial" ))
	(pt 0 8)
	(drawing
		(line (pt 0 8)(pt 52 8))
		(line (pt 52 4)(pt 78 4))
		(line (pt 52 12)(pt 78 12))
		(line (pt 52 12)(pt 52 4))
		(line (pt 78 4)(pt 82 8))
		(line (pt 82 8)(pt 78 12))
		(line (pt 78 12)(pt 82 8))
	)
)
(pin
	(output)
	(rect 920 -344 1096 -328)
	(text "OUTPUT" (rect 1 0 39 10)(font "Arial" (font_size 6)))
	(text "MemWrite" (rect 90 0 139 12)(font "Arial" ))
	(pt 0 8)
	(drawing
		(line (pt 0 8)(pt 52 8))
		(line (pt 52 4)(pt 78 4))
		(line (pt 52 12)(pt 78 12))
		(line (pt 52 12)(pt 52 4))
		(line (pt 78 4)(pt 82 8))
		(line (pt 82 8)(pt 78 12))
		(line (pt 78 12)(pt 82 8))
	)
)
(pin
	(output)
	(rect 920 -328 1096 -312)
	(text "OUTPUT" (rect 1 0 39 10)(font "Arial" (font_size 6)))
	(text "IRwrite" (rect 90 0 124 12)(font "Arial" ))
	(pt 0 8)
	(drawing
		(line (pt 0 8)(pt 52 8))
		(line (pt 52 4)(pt 78 4))
		(line (pt 52 12)(pt 78 12))
		(line (pt 52 12)(pt 52 4))
		(line (pt 78 4)(pt 82 8))
		(line (pt 82 8)(pt 78 12))
		(line (pt 78 12)(pt 82 8))
	)
)
(pin
	(output)
	(rect 920 -312 1096 -296)
	(text "OUTPUT" (rect 1 0 39 10)(font "Arial" (font_size 6)))
	(text "PCwrite" (rect 90 0 127 12)(font "Arial" ))
	(pt 0 8)
	(drawing
		(line (pt 0 8)(pt 52 8))
		(line (pt 52 4)(pt 78 4))
		(line (pt 52 12)(pt 78 12))
		(line (pt 52 12)(pt 52 4))
		(line (pt 78 4)(pt 82 8))
		(line (pt 82 8)(pt 78 12))
		(line (pt 78 12)(pt 82 8))
	)
)
(pin
	(output)
	(rect 920 -296 1096 -280)
	(text "OUTPUT" (rect 1 0 39 10)(font "Arial" (font_size 6)))
	(text "IROPwrite" (rect 90 0 139 12)(font "Arial" ))
	(pt 0 8)
	(drawing
		(line (pt 0 8)(pt 52 8))
		(line (pt 52 4)(pt 78 4))
		(line (pt 52 12)(pt 78 12))
		(line (pt 52 12)(pt 52 4))
		(line (pt 78 4)(pt 82 8))
		(line (pt 82 8)(pt 78 12))
		(line (pt 78 12)(pt 82 8))
	)
)
(pin
	(output)
	(rect 920 -264 1096 -248)
	(text "OUTPUT" (rect 1 0 39 10)(font "Arial" (font_size 6)))
	(text "RegWrite" (rect 90 0 136 12)(font "Arial" ))
	(pt 0 8)
	(drawing
		(line (pt 0 8)(pt 52 8))
		(line (pt 52 4)(pt 78 4))
		(line (pt 52 12)(pt 78 12))
		(line (pt 52 12)(pt 52 4))
		(line (pt 78 4)(pt 82 8))
		(line (pt 82 8)(pt 78 12))
		(line (pt 78 12)(pt 82 8))
	)
)
(pin
	(output)
	(rect 920 -184 1096 -168)
	(text "OUTPUT" (rect 1 0 39 10)(font "Arial" (font_size 6)))
	(text "ALUSrcB[1..0]" (rect 90 0 160 12)(font "Arial" ))
	(pt 0 8)
	(drawing
		(line (pt 0 8)(pt 52 8))
		(line (pt 52 4)(pt 78 4))
		(line (pt 52 12)(pt 78 12))
		(line (pt 52 12)(pt 52 4))
		(line (pt 78 4)(pt 82 8))
		(line (pt 82 8)(pt 78 12))
		(line (pt 78 12)(pt 82 8))
	)
)
(pin
	(output)
	(rect 920 -168 1096 -152)
	(text "OUTPUT" (rect 1 0 39 10)(font "Arial" (font_size 6)))
	(text "PCsrc[1..0]" (rect 90 0 146 12)(font "Arial" ))
	(pt 0 8)
	(drawing
		(line (pt 0 8)(pt 52 8))
		(line (pt 52 4)(pt 78 4))
		(line (pt 52 12)(pt 78 12))
		(line (pt 52 12)(pt 52 4))
		(line (pt 78 4)(pt 82 8))
		(line (pt 82 8)(pt 78 12))
		(line (pt 78 12)(pt 82 8))
	)
)
(pin
	(output)
	(rect 920 -152 1096 -136)
	(text "OUTPUT" (rect 1 0 39 10)(font "Arial" (font_size 6)))
	(text "ALUOP[1..0]" (rect 90 0 152 12)(font "Arial" ))
	(pt 0 8)
	(drawing
		(line (pt 0 8)(pt 52 8))
		(line (pt 52 4)(pt 78 4))
		(line (pt 52 12)(pt 78 12))
		(line (pt 52 12)(pt 52 4))
		(line (pt 78 4)(pt 82 8))
		(line (pt 82 8)(pt 78 12))
		(line (pt 78 12)(pt 82 8))
	)
)
(pin
	(output)
	(rect 920 -136 1096 -120)
	(text "OUTPUT" (rect 1 0 39 10)(font "Arial" (font_size 6)))
	(text "MemToReg[1..0]" (rect 90 0 171 12)(font "Arial" ))
	(pt 0 8)
	(drawing
		(line (pt 0 8)(pt 52 8))
		(line (pt 52 4)(pt 78 4))
		(line (pt 52 12)(pt 78 12))
		(line (pt 52 12)(pt 52 4))
		(line (pt 78 4)(pt 82 8))
		(line (pt 82 8)(pt 78 12))
		(line (pt 78 12)(pt 82 8))
	)
)
(pin
	(output)
	(rect 920 -120 1096 -104)
	(text "OUTPUT" (rect 1 0 39 10)(font "Arial" (font_size 6)))
	(text "DataMemSrc[1..0]" (rect 90 0 179 12)(font "Arial" ))
	(pt 0 8)
	(drawing
		(line (pt 0 8)(pt 52 8))
		(line (pt 52 4)(pt 78 4))
		(line (pt 52 12)(pt 78 12))
		(line (pt 52 12)(pt 52 4))
		(line (pt 78 4)(pt 82 8))
		(line (pt 82 8)(pt 78 12))
		(line (pt 78 12)(pt 82 8))
	)
)
(pin
	(output)
	(rect 920 -88 1096 -72)
	(text "OUTPUT" (rect 1 0 39 10)(font "Arial" (font_size 6)))
	(text "DEBUG_current_instruction[7..0]" (rect 90 0 251 12)(font "Arial" ))
	(pt 0 8)
	(drawing
		(line (pt 0 8)(pt 52 8))
		(line (pt 52 4)(pt 78 4))
		(line (pt 52 12)(pt 78 12))
		(line (pt 52 12)(pt 52 4))
		(line (pt 78 4)(pt 82 8))
		(line (pt 82 8)(pt 78 12))
		(line (pt 78 12)(pt 82 8))
	)
)
(pin
	(output)
	(rect 920 -376 1096 -360)
	(text "OUTPUT" (rect 1 0 39 10)(font "Arial" (font_size 6)))
	(text "start" (rect 90 0 112 12)(font "Arial" ))
	(pt 0 8)
	(drawing
		(line (pt 0 8)(pt 52 8))
		(line (pt 52 4)(pt 78 4))
		(line (pt 52 12)(pt 78 12))
		(line (pt 52 12)(pt 52 4))
		(line (pt 78 4)(pt 82 8))
		(line (pt 82 8)(pt 78 12))
		(line (pt 78 12)(pt 82 8))
	)
)
(pin
	(output)
	(rect 920 -280 1096 -264)
	(text "OUTPUT" (rect 1 0 39 10)(font "Arial" (font_size 6)))
	(text "RegRead" (rect 90 0 136 12)(font "Arial" ))
	(pt 0 8)
	(drawing
		(line (pt 0 8)(pt 52 8))
		(line (pt 52 4)(pt 78 4))
		(line (pt 52 12)(pt 78 12))
		(line (pt 52 12)(pt 52 4))
		(line (pt 78 4)(pt 82 8))
		(line (pt 82 8)(pt 78 12))
		(line (pt 78 12)(pt 82 8))
	)
)
(pin
	(output)
	(rect 920 -200 1096 -184)
	(text "OUTPUT" (rect 1 0 39 10)(font "Arial" (font_size 6)))
	(text "ALUSrcA[1..0]" (rect 90 0 160 12)(font "Arial" ))
	(pt 0 8)
	(drawing
		(line (pt 0 8)(pt 52 8))
		(line (pt 52 4)(pt 78 4))
		(line (pt 52 12)(pt 78 12))
		(line (pt 52 12)(pt 52 4))
		(line (pt 78 4)(pt 82 8))
		(line (pt 82 8)(pt 78 12))
		(line (pt 78 12)(pt 82 8))
	)
)
(pin
	(output)
	(rect 368 152 544 168)
	(text "OUTPUT" (rect 1 0 39 10)(font "Arial" (font_size 6)))
	(text "PCOUT[15..0]" (rect 90 0 159 12)(font "Arial" ))
	(pt 0 8)
	(drawing
		(line (pt 0 8)(pt 52 8))
		(line (pt 52 4)(pt 78 4))
		(line (pt 52 12)(pt 78 12))
		(line (pt 52 12)(pt 52 4))
		(line (pt 78 4)(pt 82 8))
		(line (pt 82 8)(pt 78 12))
		(line (pt 78 12)(pt 82 8))
	)
)
(pin
	(output)
	(rect 920 -104 1096 -88)
	(text "OUTPUT" (rect 1 0 39 10)(font "Arial" (font_size 6)))
	(text "logical_one[15..0]" (rect 90 0 176 12)(font "Arial" ))
	(pt 0 8)
	(drawing
		(line (pt 0 8)(pt 52 8))
		(line (pt 52 4)(pt 78 4))
		(line (pt 52 12)(pt 78 12))
		(line (pt 52 12)(pt 52 4))
		(line (pt 78 4)(pt 82 8))
		(line (pt 82 8)(pt 78 12))
		(line (pt 78 12)(pt 82 8))
	)
)
(pin
	(output)
	(rect 792 520 968 536)
	(text "OUTPUT" (rect 1 0 39 10)(font "Arial" (font_size 6)))
	(text "MDROUT[15..0]" (rect 90 0 169 12)(font "Arial" ))
	(pt 0 8)
	(drawing
		(line (pt 0 8)(pt 52 8))
		(line (pt 52 4)(pt 78 4))
		(line (pt 52 12)(pt 78 12))
		(line (pt 52 12)(pt 52 4))
		(line (pt 78 4)(pt 82 8))
		(line (pt 82 8)(pt 78 12))
		(line (pt 78 12)(pt 82 8))
	)
)
(pin
	(output)
	(rect 920 -248 1096 -232)
	(text "OUTPUT" (rect 1 0 39 10)(font "Arial" (font_size 6)))
	(text "DataMemWrSrc" (rect 90 0 167 12)(font "Arial" ))
	(pt 0 8)
	(drawing
		(line (pt 0 8)(pt 52 8))
		(line (pt 52 4)(pt 78 4))
		(line (pt 52 12)(pt 78 12))
		(line (pt 52 12)(pt 52 4))
		(line (pt 78 4)(pt 82 8))
		(line (pt 82 8)(pt 78 12))
		(line (pt 78 12)(pt 82 8))
	)
)
(pin
	(output)
	(rect 920 -72 1096 -56)
	(text "OUTPUT" (rect 1 0 39 10)(font "Arial" (font_size 6)))
	(text "DEBUG_current_state[31..0]" (rect 90 0 231 12)(font "Arial" ))
	(pt 0 8)
	(drawing
		(line (pt 0 8)(pt 52 8))
		(line (pt 52 4)(pt 78 4))
		(line (pt 52 12)(pt 78 12))
		(line (pt 52 12)(pt 52 4))
		(line (pt 78 4)(pt 82 8))
		(line (pt 82 8)(pt 78 12))
		(line (pt 78 12)(pt 82 8))
	)
)
(pin
	(output)
	(rect 1288 -32 1464 -16)
	(text "OUTPUT" (rect 1 0 39 10)(font "Arial" (font_size 6)))
	(text "A[15..0]" (rect 90 0 128 12)(font "Arial" ))
	(pt 0 8)
	(drawing
		(line (pt 0 8)(pt 52 8))
		(line (pt 52 4)(pt 78 4))
		(line (pt 52 12)(pt 78 12))
		(line (pt 52 12)(pt 52 4))
		(line (pt 78 4)(pt 82 8))
		(line (pt 82 8)(pt 78 12))
		(line (pt 78 12)(pt 82 8))
	)
)
(pin
	(output)
	(rect 1288 304 1464 320)
	(text "OUTPUT" (rect 1 0 39 10)(font "Arial" (font_size 6)))
	(text "B[15..0]" (rect 90 0 128 12)(font "Arial" ))
	(pt 0 8)
	(drawing
		(line (pt 0 8)(pt 52 8))
		(line (pt 52 4)(pt 78 4))
		(line (pt 52 12)(pt 78 12))
		(line (pt 52 12)(pt 52 4))
		(line (pt 78 4)(pt 82 8))
		(line (pt 82 8)(pt 78 12))
		(line (pt 78 12)(pt 82 8))
	)
)
(pin
	(output)
	(rect 1912 136 2088 152)
	(text "OUTPUT" (rect 1 0 39 10)(font "Arial" (font_size 6)))
	(text "ALUC[15..0]" (rect 90 0 151 12)(font "Arial" ))
	(pt 0 8)
	(drawing
		(line (pt 0 8)(pt 52 8))
		(line (pt 52 4)(pt 78 4))
		(line (pt 52 12)(pt 78 12))
		(line (pt 52 12)(pt 52 4))
		(line (pt 78 4)(pt 82 8))
		(line (pt 82 8)(pt 78 12))
		(line (pt 78 12)(pt 82 8))
	)
)
(pin
	(output)
	(rect 920 -232 1096 -216)
	(text "OUTPUT" (rect 1 0 39 10)(font "Arial" (font_size 6)))
	(text "SSOPwrite" (rect 90 0 141 12)(font "Arial" ))
	(pt 0 8)
	(drawing
		(line (pt 0 8)(pt 52 8))
		(line (pt 52 4)(pt 78 4))
		(line (pt 52 12)(pt 78 12))
		(line (pt 52 12)(pt 52 4))
		(line (pt 78 4)(pt 82 8))
		(line (pt 82 8)(pt 78 12))
		(line (pt 78 12)(pt 82 8))
	)
)
(pin
	(output)
	(rect 1280 440 1456 456)
	(text "OUTPUT" (rect 1 0 39 10)(font "Arial" (font_size 6)))
	(text "SSOP[15..0]" (rect 90 0 151 12)(font "Arial" ))
	(pt 0 8)
	(drawing
		(line (pt 0 8)(pt 52 8))
		(line (pt 52 4)(pt 78 4))
		(line (pt 52 12)(pt 78 12))
		(line (pt 52 12)(pt 52 4))
		(line (pt 78 4)(pt 82 8))
		(line (pt 82 8)(pt 78 12))
		(line (pt 78 12)(pt 82 8))
	)
	(annotation_block (location)(rect 1456 456 1512 472))
)
(pin
	(output)
	(rect 920 -216 1096 -200)
	(text "OUTPUT" (rect 1 0 39 10)(font "Arial" (font_size 6)))
	(text "Zwrite" (rect 90 0 119 12)(font "Arial" ))
	(pt 0 8)
	(drawing
		(line (pt 0 8)(pt 52 8))
		(line (pt 52 4)(pt 78 4))
		(line (pt 52 12)(pt 78 12))
		(line (pt 52 12)(pt 52 4))
		(line (pt 78 4)(pt 82 8))
		(line (pt 82 8)(pt 78 12))
		(line (pt 78 12)(pt 82 8))
	)
)
(symbol
	(rect 624 72 784 184)
	(text "reg_16" (rect 5 0 38 12)(font "Arial" ))
	(text "IR" (rect 8 96 19 108)(font "Arial" ))
	(port
		(pt 0 32)
		(input)
		(text "clk" (rect 0 0 14 12)(font "Arial" ))
		(text "clk" (rect 21 27 35 39)(font "Arial" ))
		(line (pt 0 32)(pt 16 32))
	)
	(port
		(pt 0 48)
		(input)
		(text "ld" (rect 0 0 8 12)(font "Arial" ))
		(text "ld" (rect 21 43 29 55)(font "Arial" ))
		(line (pt 0 48)(pt 16 48))
	)
	(port
		(pt 0 64)
		(input)
		(text "clr" (rect 0 0 11 12)(font "Arial" ))
		(text "clr" (rect 21 59 32 71)(font "Arial" ))
		(line (pt 0 64)(pt 16 64))
	)
	(port
		(pt 0 80)
		(input)
		(text "d[15..0]" (rect 0 0 37 12)(font "Arial" ))
		(text "d[15..0]" (rect 21 75 58 87)(font "Arial" ))
		(line (pt 0 80)(pt 16 80)(line_width 3))
	)
	(port
		(pt 160 32)
		(output)
		(text "q[15..0]" (rect 0 0 37 12)(font "Arial" ))
		(text "q[15..0]" (rect 108 27 145 39)(font "Arial" ))
		(line (pt 160 32)(pt 144 32)(line_width 3))
	)
	(drawing
		(rectangle (rect 16 16 144 96))
	)
)
(symbol
	(rect 680 264 840 376)
	(text "reg_16" (rect 5 0 38 12)(font "Arial" ))
	(text "IROP" (rect 8 96 35 108)(font "Arial" ))
	(port
		(pt 0 32)
		(input)
		(text "clk" (rect 0 0 14 12)(font "Arial" ))
		(text "clk" (rect 21 27 35 39)(font "Arial" ))
		(line (pt 0 32)(pt 16 32))
	)
	(port
		(pt 0 48)
		(input)
		(text "ld" (rect 0 0 8 12)(font "Arial" ))
		(text "ld" (rect 21 43 29 55)(font "Arial" ))
		(line (pt 0 48)(pt 16 48))
	)
	(port
		(pt 0 64)
		(input)
		(text "clr" (rect 0 0 11 12)(font "Arial" ))
		(text "clr" (rect 21 59 32 71)(font "Arial" ))
		(line (pt 0 64)(pt 16 64))
	)
	(port
		(pt 0 80)
		(input)
		(text "d[15..0]" (rect 0 0 37 12)(font "Arial" ))
		(text "d[15..0]" (rect 21 75 58 87)(font "Arial" ))
		(line (pt 0 80)(pt 16 80)(line_width 3))
	)
	(port
		(pt 160 32)
		(output)
		(text "q[15..0]" (rect 0 0 37 12)(font "Arial" ))
		(text "q[15..0]" (rect 108 27 145 39)(font "Arial" ))
		(line (pt 160 32)(pt 144 32)(line_width 3))
	)
	(drawing
		(rectangle (rect 16 16 144 96))
	)
)
(symbol
	(rect 1360 120 1504 216)
	(text "ALUINMUX" (rect 41 0 116 16)(font "Arial" (font_size 10)))
	(text "ALUSrcBMux" (rect 8 80 72 92)(font "Arial" ))
	(port
		(pt 0 40)
		(input)
		(text "data2x[15..0]" (rect 0 0 74 14)(font "Arial" (font_size 8)))
		(text "data2x[15..0]" (rect 4 26 78 40)(font "Arial" (font_size 8)))
		(line (pt 0 40)(pt 64 40)(line_width 3))
	)
	(port
		(pt 0 56)
		(input)
		(text "data1x[15..0]" (rect 0 0 74 14)(font "Arial" (font_size 8)))
		(text "data1x[15..0]" (rect 4 42 78 56)(font "Arial" (font_size 8)))
		(line (pt 0 56)(pt 64 56)(line_width 3))
	)
	(port
		(pt 0 72)
		(input)
		(text "data0x[15..0]" (rect 0 0 74 14)(font "Arial" (font_size 8)))
		(text "data0x[15..0]" (rect 4 58 78 72)(font "Arial" (font_size 8)))
		(line (pt 0 72)(pt 64 72)(line_width 3))
	)
	(port
		(pt 72 96)
		(input)
		(text "sel[1..0]" (rect 0 0 14 44)(font "Arial" (font_size 8))(vertical))
		(text "sel[1..0]" (rect 65 43 79 87)(font "Arial" (font_size 8))(vertical))
		(line (pt 72 96)(pt 72 84)(line_width 3))
	)
	(port
		(pt 144 56)
		(output)
		(text "result[15..0]" (rect 0 0 67 14)(font "Arial" (font_size 8)))
		(text "result[15..0]" (rect 84 42 151 56)(font "Arial" (font_size 8)))
		(line (pt 144 56)(pt 80 56)(line_width 3))
	)
	(drawing
		(line (pt 64 24)(pt 64 88))
		(line (pt 64 24)(pt 80 32))
		(line (pt 64 88)(pt 80 80))
		(line (pt 80 32)(pt 80 80))
		(line (pt 0 0)(pt 146 0))
		(line (pt 146 0)(pt 146 98))
		(line (pt 0 98)(pt 146 98))
		(line (pt 0 0)(pt 0 98))
		(line (pt 0 0)(pt 0 0))
		(line (pt 0 0)(pt 0 0))
		(line (pt 0 0)(pt 0 0))
		(line (pt 0 0)(pt 0 0))
	)
)
(symbol
	(rect 1488 8 1632 104)
	(text "ALUINMUX" (rect 41 0 116 16)(font "Arial" (font_size 10)))
	(text "ALUSrcAMux" (rect 8 80 72 92)(font "Arial" ))
	(port
		(pt 0 40)
		(input)
		(text "data2x[15..0]" (rect 0 0 74 14)(font "Arial" (font_size 8)))
		(text "data2x[15..0]" (rect 4 26 78 40)(font "Arial" (font_size 8)))
		(line (pt 0 40)(pt 64 40)(line_width 3))
	)
	(port
		(pt 0 56)
		(input)
		(text "data1x[15..0]" (rect 0 0 74 14)(font "Arial" (font_size 8)))
		(text "data1x[15..0]" (rect 4 42 78 56)(font "Arial" (font_size 8)))
		(line (pt 0 56)(pt 64 56)(line_width 3))
	)
	(port
		(pt 0 72)
		(input)
		(text "data0x[15..0]" (rect 0 0 74 14)(font "Arial" (font_size 8)))
		(text "data0x[15..0]" (rect 4 58 78 72)(font "Arial" (font_size 8)))
		(line (pt 0 72)(pt 64 72)(line_width 3))
	)
	(port
		(pt 72 96)
		(input)
		(text "sel[1..0]" (rect 0 0 14 44)(font "Arial" (font_size 8))(vertical))
		(text "sel[1..0]" (rect 65 43 79 87)(font "Arial" (font_size 8))(vertical))
		(line (pt 72 96)(pt 72 84)(line_width 3))
	)
	(port
		(pt 144 56)
		(output)
		(text "result[15..0]" (rect 0 0 67 14)(font "Arial" (font_size 8)))
		(text "result[15..0]" (rect 84 42 151 56)(font "Arial" (font_size 8)))
		(line (pt 144 56)(pt 80 56)(line_width 3))
	)
	(drawing
		(line (pt 64 24)(pt 64 88))
		(line (pt 64 24)(pt 80 32))
		(line (pt 64 88)(pt 80 80))
		(line (pt 80 32)(pt 80 80))
		(line (pt 0 0)(pt 146 0))
		(line (pt 146 0)(pt 146 98))
		(line (pt 0 98)(pt 146 98))
		(line (pt 0 0)(pt 0 98))
		(line (pt 0 0)(pt 0 0))
		(line (pt 0 0)(pt 0 0))
		(line (pt 0 0)(pt 0 0))
		(line (pt 0 0)(pt 0 0))
	)
)
(symbol
	(rect 1904 -160 2048 -64)
	(text "ALUINMUX" (rect 41 0 116 16)(font "Arial" (font_size 10)))
	(text "PCsource" (rect 8 80 56 92)(font "Arial" ))
	(port
		(pt 0 40)
		(input)
		(text "data2x[15..0]" (rect 0 0 74 14)(font "Arial" (font_size 8)))
		(text "data2x[15..0]" (rect 4 26 78 40)(font "Arial" (font_size 8)))
		(line (pt 0 40)(pt 64 40)(line_width 3))
	)
	(port
		(pt 0 56)
		(input)
		(text "data1x[15..0]" (rect 0 0 74 14)(font "Arial" (font_size 8)))
		(text "data1x[15..0]" (rect 4 42 78 56)(font "Arial" (font_size 8)))
		(line (pt 0 56)(pt 64 56)(line_width 3))
	)
	(port
		(pt 0 72)
		(input)
		(text "data0x[15..0]" (rect 0 0 74 14)(font "Arial" (font_size 8)))
		(text "data0x[15..0]" (rect 4 58 78 72)(font "Arial" (font_size 8)))
		(line (pt 0 72)(pt 64 72)(line_width 3))
	)
	(port
		(pt 72 96)
		(input)
		(text "sel[1..0]" (rect 0 0 14 44)(font "Arial" (font_size 8))(vertical))
		(text "sel[1..0]" (rect 65 43 79 87)(font "Arial" (font_size 8))(vertical))
		(line (pt 72 96)(pt 72 84)(line_width 3))
	)
	(port
		(pt 144 56)
		(output)
		(text "result[15..0]" (rect 0 0 67 14)(font "Arial" (font_size 8)))
		(text "result[15..0]" (rect 84 42 151 56)(font "Arial" (font_size 8)))
		(line (pt 144 56)(pt 80 56)(line_width 3))
	)
	(drawing
		(line (pt 64 24)(pt 64 88))
		(line (pt 64 24)(pt 80 32))
		(line (pt 64 88)(pt 80 80))
		(line (pt 80 32)(pt 80 80))
		(line (pt 0 0)(pt 146 0))
		(line (pt 146 0)(pt 146 98))
		(line (pt 0 98)(pt 146 98))
		(line (pt 0 0)(pt 0 98))
		(line (pt 0 0)(pt 0 0))
		(line (pt 0 0)(pt 0 0))
		(line (pt 0 0)(pt 0 0))
		(line (pt 0 0)(pt 0 0))
	)
)
(symbol
	(rect 688 656 904 784)
	(text "DataMemory" (rect 71 0 158 16)(font "Arial" (font_size 10)))
	(text "DMemory" (rect 8 112 56 124)(font "Arial" ))
	(port
		(pt 0 32)
		(input)
		(text "data[15..0]" (rect 0 0 60 14)(font "Arial" (font_size 8)))
		(text "data[15..0]" (rect 4 18 64 32)(font "Arial" (font_size 8)))
		(line (pt 0 32)(pt 88 32)(line_width 3))
	)
	(port
		(pt 0 48)
		(input)
		(text "wren" (rect 0 0 30 14)(font "Arial" (font_size 8)))
		(text "wren" (rect 4 34 34 48)(font "Arial" (font_size 8)))
		(line (pt 0 48)(pt 88 48))
	)
	(port
		(pt 0 64)
		(input)
		(text "address[15..0]" (rect 0 0 82 14)(font "Arial" (font_size 8)))
		(text "address[15..0]" (rect 4 50 86 64)(font "Arial" (font_size 8)))
		(line (pt 0 64)(pt 88 64)(line_width 3))
	)
	(port
		(pt 0 80)
		(input)
		(text "rden" (rect 0 0 25 14)(font "Arial" (font_size 8)))
		(text "rden" (rect 4 66 29 80)(font "Arial" (font_size 8)))
		(line (pt 0 80)(pt 88 80))
	)
	(port
		(pt 0 112)
		(input)
		(text "clock" (rect 0 0 29 14)(font "Arial" (font_size 8)))
		(text "clock" (rect 4 98 33 112)(font "Arial" (font_size 8)))
		(line (pt 0 112)(pt 80 112))
	)
	(port
		(pt 216 32)
		(output)
		(text "q[15..0]" (rect 0 0 42 14)(font "Arial" (font_size 8)))
		(text "q[15..0]" (rect 177 18 219 32)(font "Arial" (font_size 8)))
		(line (pt 216 32)(pt 136 32)(line_width 3))
	)
	(drawing
		(text "16 bits" (rect 109 24 121 57)(font "Arial" )(vertical))
		(text "65536 words" (rect 120 13 132 74)(font "Arial" )(vertical))
		(text "Block type: AUTO" (rect 48 114 137 126)(font "Arial" ))
		(line (pt 104 24)(pt 136 24))
		(line (pt 136 24)(pt 136 96))
		(line (pt 136 96)(pt 104 96))
		(line (pt 104 96)(pt 104 24))
		(line (pt 118 58)(pt 123 63))
		(line (pt 118 62)(pt 123 57))
		(line (pt 88 27)(pt 96 27))
		(line (pt 96 27)(pt 96 39))
		(line (pt 96 39)(pt 88 39))
		(line (pt 88 39)(pt 88 27))
		(line (pt 88 34)(pt 90 36))
		(line (pt 90 36)(pt 88 38))
		(line (pt 80 36)(pt 88 36))
		(line (pt 96 32)(pt 104 32)(line_width 3))
		(line (pt 88 43)(pt 96 43))
		(line (pt 96 43)(pt 96 55))
		(line (pt 96 55)(pt 88 55))
		(line (pt 88 55)(pt 88 43))
		(line (pt 88 50)(pt 90 52))
		(line (pt 90 52)(pt 88 54))
		(line (pt 80 52)(pt 88 52))
		(line (pt 96 48)(pt 104 48))
		(line (pt 88 59)(pt 96 59))
		(line (pt 96 59)(pt 96 71))
		(line (pt 96 71)(pt 88 71))
		(line (pt 88 71)(pt 88 59))
		(line (pt 88 66)(pt 90 68))
		(line (pt 90 68)(pt 88 70))
		(line (pt 80 68)(pt 88 68))
		(line (pt 96 64)(pt 104 64)(line_width 3))
		(line (pt 88 75)(pt 96 75))
		(line (pt 96 75)(pt 96 87))
		(line (pt 96 87)(pt 88 87))
		(line (pt 88 87)(pt 88 75))
		(line (pt 88 82)(pt 90 84))
		(line (pt 90 84)(pt 88 86))
		(line (pt 80 84)(pt 88 84))
		(line (pt 96 80)(pt 104 80))
		(line (pt 80 112)(pt 80 36))
		(line (pt 0 0)(pt 217 0))
		(line (pt 217 0)(pt 217 130))
		(line (pt 0 130)(pt 217 130))
		(line (pt 0 0)(pt 0 130))
		(line (pt 0 0)(pt 0 0))
		(line (pt 0 0)(pt 0 0))
		(line (pt 0 0)(pt 0 0))
		(line (pt 0 0)(pt 0 0))
	)
)
(symbol
	(rect 320 640 464 720)
	(text "MUX_2INPUT" (rect 34 0 126 16)(font "Arial" (font_size 10)))
	(text "inst9" (rect 8 64 31 76)(font "Arial" ))
	(port
		(pt 0 40)
		(input)
		(text "data1x[15..0]" (rect 0 0 74 14)(font "Arial" (font_size 8)))
		(text "data1x[15..0]" (rect 4 26 78 40)(font "Arial" (font_size 8)))
		(line (pt 0 40)(pt 64 40)(line_width 3))
	)
	(port
		(pt 0 56)
		(input)
		(text "data0x[15..0]" (rect 0 0 74 14)(font "Arial" (font_size 8)))
		(text "data0x[15..0]" (rect 4 42 78 56)(font "Arial" (font_size 8)))
		(line (pt 0 56)(pt 64 56)(line_width 3))
	)
	(port
		(pt 72 80)
		(input)
		(text "sel" (rect 0 0 14 16)(font "Arial" (font_size 8))(vertical))
		(text "sel" (rect 65 51 79 67)(font "Arial" (font_size 8))(vertical))
		(line (pt 72 80)(pt 72 68))
	)
	(port
		(pt 144 48)
		(output)
		(text "result[15..0]" (rect 0 0 67 14)(font "Arial" (font_size 8)))
		(text "result[15..0]" (rect 84 34 151 48)(font "Arial" (font_size 8)))
		(line (pt 144 48)(pt 80 48)(line_width 3))
	)
	(drawing
		(line (pt 64 24)(pt 64 72))
		(line (pt 64 24)(pt 80 32))
		(line (pt 64 72)(pt 80 64))
		(line (pt 80 32)(pt 80 64))
		(line (pt 0 0)(pt 146 0))
		(line (pt 146 0)(pt 146 82))
		(line (pt 0 82)(pt 146 82))
		(line (pt 0 0)(pt 0 82))
		(line (pt 0 0)(pt 0 0))
		(line (pt 0 0)(pt 0 0))
		(line (pt 0 0)(pt 0 0))
		(line (pt 0 0)(pt 0 0))
	)
)
(symbol
	(rect 320 808 464 904)
	(text "ALUINMUX" (rect 41 0 116 16)(font "Arial" (font_size 10)))
	(text "inst11" (rect 8 80 37 92)(font "Arial" ))
	(port
		(pt 0 40)
		(input)
		(text "data2x[15..0]" (rect 0 0 74 14)(font "Arial" (font_size 8)))
		(text "data2x[15..0]" (rect 4 26 78 40)(font "Arial" (font_size 8)))
		(line (pt 0 40)(pt 64 40)(line_width 3))
	)
	(port
		(pt 0 56)
		(input)
		(text "data1x[15..0]" (rect 0 0 74 14)(font "Arial" (font_size 8)))
		(text "data1x[15..0]" (rect 4 42 78 56)(font "Arial" (font_size 8)))
		(line (pt 0 56)(pt 64 56)(line_width 3))
	)
	(port
		(pt 0 72)
		(input)
		(text "data0x[15..0]" (rect 0 0 74 14)(font "Arial" (font_size 8)))
		(text "data0x[15..0]" (rect 4 58 78 72)(font "Arial" (font_size 8)))
		(line (pt 0 72)(pt 64 72)(line_width 3))
	)
	(port
		(pt 72 96)
		(input)
		(text "sel[1..0]" (rect 0 0 14 44)(font "Arial" (font_size 8))(vertical))
		(text "sel[1..0]" (rect 65 43 79 87)(font "Arial" (font_size 8))(vertical))
		(line (pt 72 96)(pt 72 84)(line_width 3))
	)
	(port
		(pt 144 56)
		(output)
		(text "result[15..0]" (rect 0 0 67 14)(font "Arial" (font_size 8)))
		(text "result[15..0]" (rect 84 42 151 56)(font "Arial" (font_size 8)))
		(line (pt 144 56)(pt 80 56)(line_width 3))
	)
	(drawing
		(line (pt 64 24)(pt 64 88))
		(line (pt 64 24)(pt 80 32))
		(line (pt 64 88)(pt 80 80))
		(line (pt 80 32)(pt 80 80))
		(line (pt 0 0)(pt 146 0))
		(line (pt 146 0)(pt 146 98))
		(line (pt 0 98)(pt 146 98))
		(line (pt 0 0)(pt 0 98))
		(line (pt 0 0)(pt 0 0))
		(line (pt 0 0)(pt 0 0))
		(line (pt 0 0)(pt 0 0))
		(line (pt 0 0)(pt 0 0))
	)
)
(symbol
	(rect 1024 32 1168 128)
	(text "ALUINMUX" (rect 41 0 116 16)(font "Arial" (font_size 10)))
	(text "inst15" (rect 8 80 37 92)(font "Arial" ))
	(port
		(pt 0 40)
		(input)
		(text "data2x[15..0]" (rect 0 0 74 14)(font "Arial" (font_size 8)))
		(text "data2x[15..0]" (rect 4 26 78 40)(font "Arial" (font_size 8)))
		(line (pt 0 40)(pt 64 40)(line_width 3))
	)
	(port
		(pt 0 56)
		(input)
		(text "data1x[15..0]" (rect 0 0 74 14)(font "Arial" (font_size 8)))
		(text "data1x[15..0]" (rect 4 42 78 56)(font "Arial" (font_size 8)))
		(line (pt 0 56)(pt 64 56)(line_width 3))
	)
	(port
		(pt 0 72)
		(input)
		(text "data0x[15..0]" (rect 0 0 74 14)(font "Arial" (font_size 8)))
		(text "data0x[15..0]" (rect 4 58 78 72)(font "Arial" (font_size 8)))
		(line (pt 0 72)(pt 64 72)(line_width 3))
	)
	(port
		(pt 72 96)
		(input)
		(text "sel[1..0]" (rect 0 0 14 44)(font "Arial" (font_size 8))(vertical))
		(text "sel[1..0]" (rect 65 43 79 87)(font "Arial" (font_size 8))(vertical))
		(line (pt 72 96)(pt 72 84)(line_width 3))
	)
	(port
		(pt 144 56)
		(output)
		(text "result[15..0]" (rect 0 0 67 14)(font "Arial" (font_size 8)))
		(text "result[15..0]" (rect 84 42 151 56)(font "Arial" (font_size 8)))
		(line (pt 144 56)(pt 80 56)(line_width 3))
	)
	(drawing
		(line (pt 64 24)(pt 64 88))
		(line (pt 64 24)(pt 80 32))
		(line (pt 64 88)(pt 80 80))
		(line (pt 80 32)(pt 80 80))
		(line (pt 0 0)(pt 146 0))
		(line (pt 146 0)(pt 146 98))
		(line (pt 0 98)(pt 146 98))
		(line (pt 0 0)(pt 0 98))
		(line (pt 0 0)(pt 0 0))
		(line (pt 0 0)(pt 0 0))
		(line (pt 0 0)(pt 0 0))
		(line (pt 0 0)(pt 0 0))
	)
)
(symbol
	(rect 168 232 328 344)
	(text "reg_16" (rect 5 0 38 12)(font "Arial" ))
	(text "inst" (rect 8 96 25 108)(font "Arial" ))
	(port
		(pt 0 32)
		(input)
		(text "clk" (rect 0 0 14 12)(font "Arial" ))
		(text "clk" (rect 21 27 35 39)(font "Arial" ))
		(line (pt 0 32)(pt 16 32))
	)
	(port
		(pt 0 48)
		(input)
		(text "ld" (rect 0 0 8 12)(font "Arial" ))
		(text "ld" (rect 21 43 29 55)(font "Arial" ))
		(line (pt 0 48)(pt 16 48))
	)
	(port
		(pt 0 64)
		(input)
		(text "clr" (rect 0 0 11 12)(font "Arial" ))
		(text "clr" (rect 21 59 32 71)(font "Arial" ))
		(line (pt 0 64)(pt 16 64))
	)
	(port
		(pt 0 80)
		(input)
		(text "d[15..0]" (rect 0 0 37 12)(font "Arial" ))
		(text "d[15..0]" (rect 21 75 58 87)(font "Arial" ))
		(line (pt 0 80)(pt 16 80)(line_width 3))
	)
	(port
		(pt 160 32)
		(output)
		(text "q[15..0]" (rect 0 0 37 12)(font "Arial" ))
		(text "q[15..0]" (rect 108 27 145 39)(font "Arial" ))
		(line (pt 160 32)(pt 144 32)(line_width 3))
	)
	(drawing
		(rectangle (rect 16 16 144 96))
	)
)
(symbol
	(rect 1672 112 1832 224)
	(text "simple_alu" (rect 5 0 56 12)(font "Arial" ))
	(text "ALU" (rect 8 96 29 108)(font "Arial" ))
	(port
		(pt 0 32)
		(input)
		(text "Reset" (rect 0 0 29 12)(font "Arial" ))
		(text "Reset" (rect 21 27 50 39)(font "Arial" ))
		(line (pt 0 32)(pt 16 32))
	)
	(port
		(pt 0 48)
		(input)
		(text "A[15..0]" (rect 0 0 38 12)(font "Arial" ))
		(text "A[15..0]" (rect 21 43 59 55)(font "Arial" ))
		(line (pt 0 48)(pt 16 48)(line_width 3))
	)
	(port
		(pt 0 64)
		(input)
		(text "B[15..0]" (rect 0 0 38 12)(font "Arial" ))
		(text "B[15..0]" (rect 21 59 59 71)(font "Arial" ))
		(line (pt 0 64)(pt 16 64)(line_width 3))
	)
	(port
		(pt 0 80)
		(input)
		(text "Op[1..0]" (rect 0 0 40 12)(font "Arial" ))
		(text "Op[1..0]" (rect 21 75 61 87)(font "Arial" ))
		(line (pt 0 80)(pt 16 80)(line_width 3))
	)
	(port
		(pt 160 32)
		(output)
		(text "C[15..0]" (rect 0 0 40 12)(font "Arial" ))
		(text "C[15..0]" (rect 106 27 146 39)(font "Arial" ))
		(line (pt 160 32)(pt 144 32)(line_width 3))
	)
	(port
		(pt 160 48)
		(output)
		(text "Z" (rect 0 0 7 12)(font "Arial" ))
		(text "Z" (rect 134 43 141 55)(font "Arial" ))
		(line (pt 160 48)(pt 144 48))
	)
	(drawing
		(rectangle (rect 16 16 144 96))
	)
)
(symbol
	(rect 1120 416 1280 528)
	(text "reg_16" (rect 5 0 38 12)(font "Arial" ))
	(text "SSOPReg" (rect 8 96 57 108)(font "Arial" ))
	(port
		(pt 0 32)
		(input)
		(text "clk" (rect 0 0 14 12)(font "Arial" ))
		(text "clk" (rect 21 27 35 39)(font "Arial" ))
		(line (pt 0 32)(pt 16 32))
	)
	(port
		(pt 0 48)
		(input)
		(text "ld" (rect 0 0 8 12)(font "Arial" ))
		(text "ld" (rect 21 43 29 55)(font "Arial" ))
		(line (pt 0 48)(pt 16 48))
	)
	(port
		(pt 0 64)
		(input)
		(text "clr" (rect 0 0 11 12)(font "Arial" ))
		(text "clr" (rect 21 59 32 71)(font "Arial" ))
		(line (pt 0 64)(pt 16 64))
	)
	(port
		(pt 0 80)
		(input)
		(text "d[15..0]" (rect 0 0 37 12)(font "Arial" ))
		(text "d[15..0]" (rect 21 75 58 87)(font "Arial" ))
		(line (pt 0 80)(pt 16 80)(line_width 3))
	)
	(port
		(pt 160 32)
		(output)
		(text "q[15..0]" (rect 0 0 37 12)(font "Arial" ))
		(text "q[15..0]" (rect 108 27 145 39)(font "Arial" ))
		(line (pt 160 32)(pt 144 32)(line_width 3))
	)
	(drawing
		(rectangle (rect 16 16 144 96))
	)
)
(symbol
	(rect 1000 200 1216 376)
	(text "RegFile" (rect 5 0 42 12)(font "Arial" ))
	(text "RegFile" (rect 8 160 45 172)(font "Arial" ))
	(port
		(pt 0 32)
		(input)
		(text "input[15..0]" (rect 0 0 55 12)(font "Arial" ))
		(text "input[15..0]" (rect 21 27 76 39)(font "Arial" ))
		(line (pt 0 32)(pt 16 32)(line_width 3))
	)
	(port
		(pt 0 48)
		(input)
		(text "writeEnable" (rect 0 0 55 12)(font "Arial" ))
		(text "writeEnable" (rect 21 43 76 55)(font "Arial" ))
		(line (pt 0 48)(pt 16 48))
	)
	(port
		(pt 0 64)
		(input)
		(text "readEnable" (rect 0 0 54 12)(font "Arial" ))
		(text "readEnable" (rect 21 59 75 71)(font "Arial" ))
		(line (pt 0 64)(pt 16 64))
	)
	(port
		(pt 0 80)
		(input)
		(text "regASel[3..0]" (rect 0 0 63 12)(font "Arial" ))
		(text "regASel[3..0]" (rect 21 75 84 87)(font "Arial" ))
		(line (pt 0 80)(pt 16 80)(line_width 3))
	)
	(port
		(pt 0 96)
		(input)
		(text "regBSel[3..0]" (rect 0 0 63 12)(font "Arial" ))
		(text "regBSel[3..0]" (rect 21 91 84 103)(font "Arial" ))
		(line (pt 0 96)(pt 16 96)(line_width 3))
	)
	(port
		(pt 0 112)
		(input)
		(text "writeRegSel[3..0]" (rect 0 0 83 12)(font "Arial" ))
		(text "writeRegSel[3..0]" (rect 21 107 104 119)(font "Arial" ))
		(line (pt 0 112)(pt 16 112)(line_width 3))
	)
	(port
		(pt 0 128)
		(input)
		(text "clk" (rect 0 0 14 12)(font "Arial" ))
		(text "clk" (rect 21 123 35 135)(font "Arial" ))
		(line (pt 0 128)(pt 16 128))
	)
	(port
		(pt 216 32)
		(output)
		(text "outA[15..0]" (rect 0 0 54 12)(font "Arial" ))
		(text "outA[15..0]" (rect 150 27 204 39)(font "Arial" ))
		(line (pt 216 32)(pt 200 32)(line_width 3))
	)
	(port
		(pt 216 48)
		(output)
		(text "outB[15..0]" (rect 0 0 54 12)(font "Arial" ))
		(text "outB[15..0]" (rect 150 43 204 55)(font "Arial" ))
		(line (pt 216 48)(pt 200 48)(line_width 3))
	)
	(drawing
		(rectangle (rect 16 16 200 160))
	)
)
(symbol
	(rect 1912 224 2032 336)
	(text "reg_1" (rect 5 0 32 12)(font "Arial" ))
	(text "inst1" (rect 8 96 31 108)(font "Arial" ))
	(port
		(pt 0 32)
		(input)
		(text "clk" (rect 0 0 14 12)(font "Arial" ))
		(text "clk" (rect 21 27 35 39)(font "Arial" ))
		(line (pt 0 32)(pt 16 32))
	)
	(port
		(pt 0 48)
		(input)
		(text "d" (rect 0 0 5 12)(font "Arial" ))
		(text "d" (rect 21 43 26 55)(font "Arial" ))
		(line (pt 0 48)(pt 16 48))
	)
	(port
		(pt 0 64)
		(input)
		(text "ld" (rect 0 0 8 12)(font "Arial" ))
		(text "ld" (rect 21 59 29 71)(font "Arial" ))
		(line (pt 0 64)(pt 16 64))
	)
	(port
		(pt 120 32)
		(output)
		(text "q" (rect 0 0 5 12)(font "Arial" ))
		(text "q" (rect 95 27 100 39)(font "Arial" ))
		(line (pt 120 32)(pt 104 32))
	)
	(drawing
		(rectangle (rect 16 16 104 96))
	)
)
(symbol
	(rect 352 232 568 360)
	(text "ROM" (rect 93 0 128 16)(font "Arial" (font_size 10)))
	(text "ProgramMemory" (rect 8 112 89 124)(font "Arial" ))
	(port
		(pt 0 32)
		(input)
		(text "address[15..0]" (rect 0 0 82 14)(font "Arial" (font_size 8)))
		(text "address[15..0]" (rect 4 18 86 32)(font "Arial" (font_size 8)))
		(line (pt 0 32)(pt 88 32)(line_width 3))
	)
	(port
		(pt 0 112)
		(input)
		(text "clock" (rect 0 0 29 14)(font "Arial" (font_size 8)))
		(text "clock" (rect 4 98 33 112)(font "Arial" (font_size 8)))
		(line (pt 0 112)(pt 80 112))
	)
	(port
		(pt 216 32)
		(output)
		(text "q[15..0]" (rect 0 0 42 14)(font "Arial" (font_size 8)))
		(text "q[15..0]" (rect 177 18 219 32)(font "Arial" (font_size 8)))
		(line (pt 216 32)(pt 136 32)(line_width 3))
	)
	(drawing
		(text "16 bits" (rect 109 24 121 57)(font "Arial" )(vertical))
		(text "65536 words" (rect 120 13 132 74)(font "Arial" )(vertical))
		(text "Block type: AUTO" (rect 48 114 137 126)(font "Arial" ))
		(line (pt 104 24)(pt 136 24))
		(line (pt 136 24)(pt 136 96))
		(line (pt 136 96)(pt 104 96))
		(line (pt 104 96)(pt 104 24))
		(line (pt 118 58)(pt 123 63))
		(line (pt 118 62)(pt 123 57))
		(line (pt 88 27)(pt 96 27))
		(line (pt 96 27)(pt 96 39))
		(line (pt 96 39)(pt 88 39))
		(line (pt 88 39)(pt 88 27))
		(line (pt 88 34)(pt 90 36))
		(line (pt 90 36)(pt 88 38))
		(line (pt 80 36)(pt 88 36))
		(line (pt 96 32)(pt 104 32)(line_width 3))
		(line (pt 80 112)(pt 80 36))
		(line (pt 0 0)(pt 217 0))
		(line (pt 217 0)(pt 217 130))
		(line (pt 0 130)(pt 217 130))
		(line (pt 0 0)(pt 0 130))
		(line (pt 0 0)(pt 0 0))
		(line (pt 0 0)(pt 0 0))
		(line (pt 0 0)(pt 0 0))
		(line (pt 0 0)(pt 0 0))
	)
)
(symbol
	(rect 696 -400 920 -32)
	(text "Control_Unit" (rect 5 0 66 12)(font "Arial" ))
	(text "inst2" (rect 8 352 31 364)(font "Arial" ))
	(port
		(pt 0 32)
		(input)
		(text "clk" (rect 0 0 14 12)(font "Arial" ))
		(text "clk" (rect 21 27 35 39)(font "Arial" ))
		(line (pt 0 32)(pt 16 32))
	)
	(port
		(pt 0 48)
		(input)
		(text "reset" (rect 0 0 24 12)(font "Arial" ))
		(text "reset" (rect 21 43 45 55)(font "Arial" ))
		(line (pt 0 48)(pt 16 48))
	)
	(port
		(pt 0 64)
		(input)
		(text "Z" (rect 0 0 7 12)(font "Arial" ))
		(text "Z" (rect 21 59 28 71)(font "Arial" ))
		(line (pt 0 64)(pt 16 64))
	)
	(port
		(pt 0 80)
		(input)
		(text "AM[1..0]" (rect 0 0 41 12)(font "Arial" ))
		(text "AM[1..0]" (rect 21 75 62 87)(font "Arial" ))
		(line (pt 0 80)(pt 16 80)(line_width 3))
	)
	(port
		(pt 0 96)
		(input)
		(text "opcode[5..0]" (rect 0 0 61 12)(font "Arial" ))
		(text "opcode[5..0]" (rect 21 91 82 103)(font "Arial" ))
		(line (pt 0 96)(pt 16 96)(line_width 3))
	)
	(port
		(pt 224 32)
		(output)
		(text "start" (rect 0 0 22 12)(font "Arial" ))
		(text "start" (rect 185 27 203 39)(font "Arial" ))
		(line (pt 224 32)(pt 208 32))
	)
	(port
		(pt 224 48)
		(output)
		(text "MemRead" (rect 0 0 49 12)(font "Arial" ))
		(text "MemRead" (rect 162 43 203 55)(font "Arial" ))
		(line (pt 224 48)(pt 208 48))
	)
	(port
		(pt 224 64)
		(output)
		(text "MemWrite" (rect 0 0 49 12)(font "Arial" ))
		(text "MemWrite" (rect 162 59 203 71)(font "Arial" ))
		(line (pt 224 64)(pt 208 64))
	)
	(port
		(pt 224 80)
		(output)
		(text "IRwrite" (rect 0 0 34 12)(font "Arial" ))
		(text "IRwrite" (rect 175 75 203 87)(font "Arial" ))
		(line (pt 224 80)(pt 208 80))
	)
	(port
		(pt 224 96)
		(output)
		(text "PCwrite" (rect 0 0 37 12)(font "Arial" ))
		(text "PCwrite" (rect 172 91 203 103)(font "Arial" ))
		(line (pt 224 96)(pt 208 96))
	)
	(port
		(pt 224 112)
		(output)
		(text "IROPwrite" (rect 0 0 49 12)(font "Arial" ))
		(text "IROPwrite" (rect 162 107 203 119)(font "Arial" ))
		(line (pt 224 112)(pt 208 112))
	)
	(port
		(pt 224 128)
		(output)
		(text "RegRead" (rect 0 0 46 12)(font "Arial" ))
		(text "RegRead" (rect 165 123 203 135)(font "Arial" ))
		(line (pt 224 128)(pt 208 128))
	)
	(port
		(pt 224 144)
		(output)
		(text "RegWrite" (rect 0 0 46 12)(font "Arial" ))
		(text "RegWrite" (rect 165 139 203 151)(font "Arial" ))
		(line (pt 224 144)(pt 208 144))
	)
	(port
		(pt 224 160)
		(output)
		(text "DataMemWrSrc" (rect 0 0 77 12)(font "Arial" ))
		(text "DataMemWrSrc" (rect 138 155 203 167)(font "Arial" ))
		(line (pt 224 160)(pt 208 160))
	)
	(port
		(pt 224 176)
		(output)
		(text "SSOPwrite" (rect 0 0 51 12)(font "Arial" ))
		(text "SSOPwrite" (rect 160 171 203 183)(font "Arial" ))
		(line (pt 224 176)(pt 208 176))
	)
	(port
		(pt 224 192)
		(output)
		(text "Zwrite" (rect 0 0 29 12)(font "Arial" ))
		(text "Zwrite" (rect 179 187 203 199)(font "Arial" ))
		(line (pt 224 192)(pt 208 192))
	)
	(port
		(pt 224 208)
		(output)
		(text "ALUSrcA[1..0]" (rect 0 0 70 12)(font "Arial" ))
		(text "ALUSrcA[1..0]" (rect 144 203 203 215)(font "Arial" ))
		(line (pt 224 208)(pt 208 208)(line_width 3))
	)
	(port
		(pt 224 224)
		(output)
		(text "ALUSrcB[1..0]" (rect 0 0 70 12)(font "Arial" ))
		(text "ALUSrcB[1..0]" (rect 144 219 203 231)(font "Arial" ))
		(line (pt 224 224)(pt 208 224)(line_width 3))
	)
	(port
		(pt 224 240)
		(output)
		(text "PCsrc[1..0]" (rect 0 0 56 12)(font "Arial" ))
		(text "PCsrc[1..0]" (rect 156 235 203 247)(font "Arial" ))
		(line (pt 224 240)(pt 208 240)(line_width 3))
	)
	(port
		(pt 224 256)
		(output)
		(text "ALUOP[1..0]" (rect 0 0 62 12)(font "Arial" ))
		(text "ALUOP[1..0]" (rect 151 251 203 263)(font "Arial" ))
		(line (pt 224 256)(pt 208 256)(line_width 3))
	)
	(port
		(pt 224 272)
		(output)
		(text "MemToReg[1..0]" (rect 0 0 81 12)(font "Arial" ))
		(text "MemToReg[1..0]" (rect 135 267 203 279)(font "Arial" ))
		(line (pt 224 272)(pt 208 272)(line_width 3))
	)
	(port
		(pt 224 288)
		(output)
		(text "DataMemSrc[1..0]" (rect 0 0 89 12)(font "Arial" ))
		(text "DataMemSrc[1..0]" (rect 128 283 203 295)(font "Arial" ))
		(line (pt 224 288)(pt 208 288)(line_width 3))
	)
	(port
		(pt 224 304)
		(output)
		(text "logical_one[15..0]" (rect 0 0 86 12)(font "Arial" ))
		(text "logical_one[15..0]" (rect 131 299 203 311)(font "Arial" ))
		(line (pt 224 304)(pt 208 304)(line_width 3))
	)
	(port
		(pt 224 320)
		(output)
		(text "instruction_o[7..0]" (rect 0 0 88 12)(font "Arial" ))
		(text "instruction_o[7..0]" (rect 129 315 203 327)(font "Arial" ))
		(line (pt 224 320)(pt 208 320)(line_width 3))
	)
	(port
		(pt 224 336)
		(output)
		(text "state[31..0]" (rect 0 0 56 12)(font "Arial" ))
		(text "state[31..0]" (rect 156 331 203 343)(font "Arial" ))
		(line (pt 224 336)(pt 208 336)(line_width 3))
	)
	(drawing
		(rectangle (rect 16 16 208 352))
	)
)
(symbol
	(rect 392 -24 552 56)
	(text "adder_16" (rect 5 0 49 12)(font "Arial" ))
	(text "PCadder" (rect 8 64 50 76)(font "Arial" ))
	(port
		(pt 0 32)
		(input)
		(text "A[15..0]" (rect 0 0 38 12)(font "Arial" ))
		(text "A[15..0]" (rect 21 27 59 39)(font "Arial" ))
		(line (pt 0 32)(pt 16 32)(line_width 3))
	)
	(port
		(pt 160 32)
		(output)
		(text "C[15..0]" (rect 0 0 40 12)(font "Arial" ))
		(text "C[15..0]" (rect 106 27 146 39)(font "Arial" ))
		(line (pt 160 32)(pt 144 32)(line_width 3))
	)
	(drawing
		(rectangle (rect 16 16 144 64))
	)
)
(connector
	(pt 608 264)
	(pt 568 264)
	(bus)
)
(connector
	(text "PCwrite" (rect 130 264 167 276)(font "Arial" ))
	(pt 168 280)
	(pt 120 280)
)
(connector
	(text "clk" (rect 130 248 144 260)(font "Arial" ))
	(pt 120 264)
	(pt 168 264)
)
(connector
	(pt 352 344)
	(pt 336 344)
)
(connector
	(text "clk" (rect 320 354 332 368)(font "Arial" )(vertical))
	(pt 336 344)
	(pt 336 376)
)
(connector
	(text "ALUOP[1..0]" (rect 1616 200 1678 212)(font "Arial" ))
	(pt 1672 192)
	(pt 1592 192)
	(bus)
)
(connector
	(text "start" (rect 147 280 169 292)(font "Arial" ))
	(pt 168 296)
	(pt 120 296)
)
(connector
	(text "clk" (rect 962 312 976 324)(font "Arial" ))
	(pt 952 328)
	(pt 1000 328)
)
(connector
	(pt 880 312)
	(pt 1000 312)
	(bus)
)
(connector
	(text "IRMSB[3..0]" (rect 928 280 988 292)(font "Arial" ))
	(pt 928 296)
	(pt 1000 296)
	(bus)
)
(connector
	(pt 880 280)
	(pt 880 312)
	(bus)
)
(connector
	(text "RegWrite" (rect 938 232 984 244)(font "Arial" ))
	(pt 936 248)
	(pt 1000 248)
)
(connector
	(text "RegRead" (rect 952 248 998 260)(font "Arial" ))
	(pt 1000 264)
	(pt 944 264)
)
(connector
	(pt 328 264)
	(pt 344 264)
	(bus)
)
(connector
	(pt 344 264)
	(pt 352 264)
	(bus)
)
(connector
	(text "PCOUT[15..0]" (rect 1419 96 1488 108)(font "Arial" ))
	(pt 1488 80)
	(pt 1424 80)
	(bus)
)
(connector
	(text "OPERAND[15..0]" (rect 1229 168 1315 180)(font "Arial" ))
	(pt 1360 176)
	(pt 1312 176)
	(bus)
)
(connector
	(text "LOGICAL_ONE[15..0]" (rect 1253 136 1361 148)(font "Arial" ))
	(pt 1360 160)
	(pt 1312 160)
	(bus)
)
(connector
	(text "B[15..0]" (rect 1412 24 1450 36)(font "Arial" ))
	(pt 1488 48)
	(pt 1424 48)
	(bus)
)
(connector
	(text "ALUSrcB[1..0]" (rect 1416 188 1428 258)(font "Arial" )(vertical))
	(pt 1432 216)
	(pt 1432 264)
	(bus)
)
(connector
	(text "ALUSrcA[1..0]" (rect 1544 76 1556 146)(font "Arial" )(vertical))
	(pt 1560 104)
	(pt 1560 152)
	(bus)
)
(connector
	(pt 1504 176)
	(pt 1672 176)
	(bus)
)
(connector
	(pt 1632 64)
	(pt 1648 64)
	(bus)
)
(connector
	(pt 1648 64)
	(pt 1648 160)
	(bus)
)
(connector
	(pt 1648 160)
	(pt 1672 160)
	(bus)
)
(connector
	(text "clk" (rect 466 -384 480 -372)(font "Arial" ))
	(pt 456 -368)
	(pt 696 -368)
)
(connector
	(text "Z" (rect 546 -352 553 -340)(font "Arial" ))
	(pt 536 -336)
	(pt 696 -336)
)
(connector
	(text "IRMSB[15..14]" (rect 472 -336 543 -324)(font "Arial" ))
	(pt 464 -320)
	(pt 696 -320)
	(bus)
)
(connector
	(text "IRMSB[13..8]" (rect 474 -296 540 -284)(font "Arial" ))
	(pt 464 -304)
	(pt 696 -304)
	(bus)
)
(connector
	(text "PCsrc[1..0]" (rect 1960 -56 1972 0)(font "Arial" )(vertical))
	(pt 1976 -64)
	(pt 1976 8)
	(bus)
)
(connector
	(text "OPERAND[15..0]" (rect 1784 -104 1870 -92)(font "Arial" ))
	(pt 1904 -88)
	(pt 1776 -88)
	(bus)
)
(connector
	(text "B[15..0]" (rect 1784 -120 1822 -108)(font "Arial" ))
	(pt 1904 -104)
	(pt 1776 -104)
	(bus)
)
(connector
	(text "PCIN[15..0]" (rect 2049 -120 2108 -108)(font "Arial" ))
	(pt 2048 -104)
	(pt 2120 -104)
	(bus)
)
(connector
	(text "PCIN[15..0]" (rect 96 328 155 340)(font "Arial" ))
	(pt 168 312)
	(pt 120 312)
	(bus)
)
(connector
	(pt 568 720)
	(pt 688 720)
	(bus)
)
(connector
	(text "clk" (rect 658 752 672 764)(font "Arial" ))
	(pt 632 768)
	(pt 688 768)
)
(connector
	(text "MemRead" (rect 640 736 689 748)(font "Arial" ))
	(pt 688 736)
	(pt 640 736)
)
(connector
	(text "MemWrite" (rect 639 704 688 716)(font "Arial" ))
	(pt 688 704)
	(pt 584 704)
)
(connector
	(pt 904 688)
	(pt 928 688)
	(bus)
)
(connector
	(text "clk" (rect 586 88 600 100)(font "Arial" ))
	(pt 576 104)
	(pt 624 104)
)
(connector
	(text "IRwrite" (rect 576 104 610 116)(font "Arial" ))
	(pt 576 120)
	(pt 624 120)
)
(connector
	(pt 608 152)
	(pt 624 152)
	(bus)
)
(connector
	(text "clk" (rect 642 280 656 292)(font "Arial" ))
	(pt 680 296)
	(pt 632 296)
)
(connector
	(text "IROPwrite" (rect 632 296 681 308)(font "Arial" ))
	(pt 680 312)
	(pt 632 312)
)
(connector
	(pt 608 344)
	(pt 680 344)
	(bus)
)
(connector
	(pt 608 152)
	(pt 608 264)
	(bus)
)
(connector
	(pt 608 264)
	(pt 608 344)
	(bus)
)
(connector
	(pt 784 104)
	(pt 792 104)
	(bus)
)
(connector
	(pt 1000 232)
	(pt 992 232)
	(bus)
)
(connector
	(pt 992 232)
	(pt 992 192)
	(bus)
)
(connector
	(pt 992 192)
	(pt 1192 192)
	(bus)
)
(connector
	(pt 840 296)
	(pt 840 248)
	(bus)
)
(connector
	(pt 720 248)
	(pt 720 232)
	(bus)
)
(connector
	(pt 720 232)
	(pt 728 232)
	(bus)
)
(connector
	(pt 792 104)
	(pt 792 200)
	(bus)
)
(connector
	(pt 720 216)
	(pt 720 200)
	(bus)
)
(connector
	(pt 728 216)
	(pt 720 216)
	(bus)
)
(connector
	(pt 792 200)
	(pt 720 200)
	(bus)
)
(connector
	(pt 1192 192)
	(pt 1192 88)
	(bus)
)
(connector
	(pt 1192 88)
	(pt 1168 88)
	(bus)
)
(connector
	(text "OPERAND[15..0]" (rect 857 96 943 108)(font "Arial" ))
	(pt 1024 104)
	(pt 944 104)
	(bus)
)
(connector
	(text "MDROUT[15..0]" (rect 861 64 940 76)(font "Arial" ))
	(pt 1024 72)
	(pt 944 72)
	(bus)
)
(connector
	(text "MemToReg[1..0]" (rect 1080 89 1092 170)(font "Arial" )(vertical))
	(pt 1096 128)
	(pt 1096 168)
	(bus)
)
(connector
	(pt 408 -352)
	(pt 696 -352)
)
(connector
	(pt 1216 232)
	(pt 1232 232)
	(bus)
)
(connector
	(pt 1232 232)
	(pt 1232 64)
	(bus)
)
(connector
	(pt 1288 64)
	(pt 1288 -24)
	(bus)
)
(connector
	(pt 1272 248)
	(pt 1272 312)
	(bus)
)
(connector
	(text "B[15..0]" (rect 1322 176 1360 188)(font "Arial" ))
	(pt 1360 192)
	(pt 1312 192)
	(bus)
)
(connector
	(pt 1272 312)
	(pt 1288 312)
	(bus)
)
(connector
	(pt 1312 248)
	(pt 1312 192)
	(bus)
)
(connector
	(pt 1216 248)
	(pt 1272 248)
	(bus)
)
(connector
	(pt 1272 248)
	(pt 1312 248)
	(bus)
)
(connector
	(pt 1232 64)
	(pt 1288 64)
	(bus)
)
(connector
	(text "A[15..0]" (rect 1432 48 1470 60)(font "Arial" ))
	(pt 1288 64)
	(pt 1488 64)
	(bus)
)
(connector
	(text "ALUC[15..0]" (rect 862 80 923 92)(font "Arial" ))
	(pt 1024 88)
	(pt 944 88)
	(bus)
)
(connector
	(text "OPERAND[15..0]" (rect 821 232 907 244)(font "Arial" ))
	(pt 840 248)
	(pt 720 248)
	(bus)
)
(connector
	(pt 928 688)
	(pt 928 616)
	(bus)
)
(connector
	(text "DataMemWrSrc" (rect 352 718 364 795)(font "Arial" )(vertical))
	(pt 392 720)
	(pt 392 776)
)
(connector
	(text "B[15..0]" (rect 203 672 241 684)(font "Arial" ))
	(pt 320 680)
	(pt 248 680)
	(bus)
)
(connector
	(pt 464 688)
	(pt 688 688)
	(bus)
)
(connector
	(text "OPERAND[15..0]" (rect 159 688 245 700)(font "Arial" ))
	(pt 248 696)
	(pt 320 696)
	(bus)
)
(connector
	(pt 568 720)
	(pt 568 864)
	(bus)
)
(connector
	(text "OPERAND[15..0]" (rect 159 840 245 852)(font "Arial" ))
	(pt 320 848)
	(pt 248 848)
	(bus)
)
(connector
	(text "A[15..0]" (rect 204 856 242 868)(font "Arial" ))
	(pt 320 864)
	(pt 248 864)
	(bus)
)
(connector
	(text "B[15..0]" (rect 208 872 246 884)(font "Arial" ))
	(pt 320 880)
	(pt 248 880)
	(bus)
)
(connector
	(text "DataMemSrc[1..0]" (rect 346 904 358 993)(font "Arial" )(vertical))
	(pt 392 904)
	(pt 392 968)
	(bus)
)
(connector
	(pt 464 864)
	(pt 568 864)
	(bus)
)
(connector
	(text "ALUC[15..0]" (rect 1880 128 1941 140)(font "Arial" ))
	(pt 1832 144)
	(pt 1912 144)
	(bus)
)
(connector
	(pt 1832 160)
	(pt 1872 160)
)
(connector
	(pt 1872 160)
	(pt 1872 272)
)
(connector
	(pt 1872 272)
	(pt 1912 272)
)
(connector
	(text "clk" (rect 1888 240 1902 252)(font "Arial" ))
	(pt 1912 256)
	(pt 1880 256)
)
(connector
	(text "Z" (rect 2040 240 2047 252)(font "Arial" ))
	(pt 2032 256)
	(pt 2072 256)
)
(connector
	(text "B[15..0]" (rect 1088 480 1126 492)(font "Arial" ))
	(pt 1120 496)
	(pt 1080 496)
	(bus)
)
(connector
	(text "SSOPwrite" (rect 1064 456 1115 468)(font "Arial" ))
	(pt 1120 464)
	(pt 1080 464)
)
(connector
	(text "clk" (rect 1088 432 1102 444)(font "Arial" ))
	(pt 1120 448)
	(pt 1080 448)
)
(connector
	(text "Zwrite" (rect 1888 272 1917 284)(font "Arial" ))
	(pt 1912 288)
	(pt 1880 288)
)
(connector
	(pt 928 616)
	(pt 712 616)
	(bus)
)
(connector
	(pt 792 528)
	(pt 712 528)
	(bus)
)
(connector
	(pt 712 616)
	(pt 712 528)
	(bus)
)
(connector
	(pt 1240 8)
	(pt 1240 -104)
	(bus)
)
(connector
	(pt 552 8)
	(pt 1240 8)
	(bus)
)
(connector
	(pt 1240 -104)
	(pt 1688 -104)
	(bus)
)
(connector
	(pt 1688 -104)
	(pt 1688 -120)
	(bus)
)
(connector
	(pt 1688 -120)
	(pt 1904 -120)
	(bus)
)
(connector
	(pt 344 160)
	(pt 368 160)
	(bus)
)
(connector
	(pt 392 8)
	(pt 344 8)
	(bus)
)
(connector
	(pt 344 8)
	(pt 344 160)
	(bus)
)
(connector
	(pt 344 160)
	(pt 344 264)
	(bus)
)
(connector
	(pt 856 280)
	(pt 880 280)
	(bus)
)
(connector
	(text "IRMSB[7..4]" (rect 882 264 942 276)(font "Arial" ))
	(pt 880 280)
	(pt 1000 280)
	(bus)
)
(junction (pt 608 264))
(junction (pt 880 280))
(junction (pt 344 264))
(junction (pt 1272 248))
(junction (pt 1288 64))
(junction (pt 344 160))
