WIDTH = 16;
DEPTH = 1024;

ADDRESS_RADIX = HEX;
DATA_RADIX = HEX;

CONTENT
	BEGIN
		[00..3FF]: FFFF;		
		0	:4010;
		1	:0001;
		2	:4040;
		3	:0010;
		4	:4344;
		5	:0001;
		6	:5C40;
		7	:0000;
		8	:F811;
		9	:4000;
		A	:0000;
		B	:FA00;
		C	:4020;
		D	:FFFF;
		E	:4322;
		F	:0001;
		00	:5C20;
		01	:0004;
		02	:5800;
		03	:000E;
	END;
