-- begin_signature
-- ProgramMemory
-- end_signature
WIDTH=16;
DEPTH=4;

ADDRESS_RADIX=UNS;
DATA_RADIX=BIN;

CONTENT BEGIN
	3 :	0000000000110011;
	2 :	0000000000100010;
	1 :	0000000000010001;
	0 :	0000000000000000;
END;
